<svg width="25" height="15" viewBox="0 0 25 15" fill="none" xmlns="http://www.w3.org/2000/svg">
<path d="M0 0H25V1.5H0V0Z" fill="black"/>
<path d="M0 6.75H25V8.25H0V6.75Z" fill="black"/>
<path d="M0 13.5H25V15H0V13.5Z" fill="black"/>
</svg>
