<svg width="11" height="11" viewBox="0 0 11 11" fill="none" xmlns="http://www.w3.org/2000/svg">
<path d="M4.01022 10.2188H2.00341C1.73729 10.2188 1.48207 10.1109 1.29389 9.91879C1.10572 9.72669 1 9.46616 1 9.19449V2.02431C1 1.75265 1.10572 1.49211 1.29389 1.30001C1.48207 1.10792 1.73729 1 2.00341 1H4.01022" stroke="#42424D" stroke-width="1.22917" stroke-linecap="round" stroke-linejoin="round"/>
<path d="M7.52197 8.1702L10.0305 5.60942L7.52197 3.04865" stroke="#42424D" stroke-width="1.22917" stroke-linecap="round" stroke-linejoin="round"/>
<path d="M10.0305 5.60938H4.01001" stroke="#42424D" stroke-width="1.22917" stroke-linecap="round" stroke-linejoin="round"/>
</svg>
