<svg width="14" height="15" viewBox="0 0 14 15" fill="none" xmlns="http://www.w3.org/2000/svg">
<path d="M1 5.72503L6.87755 1.00003L12.7551 5.72503V13.15C12.7551 13.5081 12.6175 13.8514 12.3725 14.1046C12.1276 14.3578 11.7954 14.5 11.449 14.5H2.30612C1.95972 14.5 1.6275 14.3578 1.38255 14.1046C1.13761 13.8514 1 13.5081 1 13.15V5.72503Z" stroke="black" stroke-width="0.72" stroke-linecap="round" stroke-linejoin="round"/>
<path d="M4.52612 14.5001V7.75005H8.93429V14.5001" stroke="black" stroke-width="0.72" stroke-linecap="round" stroke-linejoin="round"/>
</svg>
