<svg width="13" height="14" viewBox="0 0 13 14" fill="none" xmlns="http://www.w3.org/2000/svg">
<path d="M10.6245 2.22812H2.20306C1.53863 2.22812 1 2.77797 1 3.45624V12.0531C1 12.7314 1.53863 13.2812 2.20306 13.2812H10.6245C11.2889 13.2812 11.8276 12.7314 11.8276 12.0531V3.45624C11.8276 2.77797 11.2889 2.22812 10.6245 2.22812Z" stroke="black" stroke-width="0.736875" stroke-linecap="round" stroke-linejoin="round"/>
<path d="M8.81958 1V3.45625" stroke="black" stroke-width="0.736875" stroke-linecap="round" stroke-linejoin="round"/>
<path d="M4.00732 1V3.45625" stroke="black" stroke-width="0.736875" stroke-linecap="round" stroke-linejoin="round"/>
<path d="M1 5.91251H11.8276" stroke="black" stroke-width="0.736875" stroke-linecap="round" stroke-linejoin="round"/>
</svg>
