<svg width="11" height="12" viewBox="0 0 11 12" fill="none" xmlns="http://www.w3.org/2000/svg">
<path d="M9.74663 4.16058C9.49313 3.80783 9.13954 3.39467 8.75162 2.99866C8.3637 2.60266 7.95897 2.2417 7.61342 1.98292C7.02459 1.54217 6.73894 1.49146 6.5753 1.49146H2.37462C1.87127 1.49146 1.46143 1.90983 1.46143 2.42367V11.0001C1.46143 11.5139 1.87127 11.9323 2.37462 11.9323H9.31488C9.81823 11.9323 10.2281 11.5139 10.2281 11.0001V5.22032C10.2281 5.05327 10.1784 4.76167 9.74663 4.16058ZM8.23439 3.52667C8.58505 3.88464 8.85974 4.20682 9.06284 4.47455H7.30512V2.68096C7.56739 2.88829 7.88372 3.1687 8.23366 3.52667H8.23439ZM9.49751 11.0001C9.49751 11.1015 9.41423 11.1865 9.31488 11.1865H2.37462C2.32636 11.1859 2.28023 11.1661 2.2461 11.1313C2.21197 11.0964 2.19255 11.0493 2.19198 11.0001V2.42367C2.19198 2.32299 2.27526 2.23723 2.37462 2.23723H6.5753V4.84743C6.5753 4.94633 6.61378 5.04118 6.68229 5.11111C6.75079 5.18104 6.8437 5.22032 6.94058 5.22032H9.49751V11.0001Z" fill="black"/>
<path d="M6.15199 0.491465C5.56316 0.0507126 5.27752 0 5.11387 0H0.913192C0.409841 0 0 0.418379 0 0.932217V9.50861C0 9.95906 0.314138 10.3357 0.730554 10.4222V0.932217C0.730554 0.831537 0.814567 0.745773 0.913192 0.745773H6.47051C6.36632 0.658138 6.25986 0.573339 6.15126 0.491465H6.15199Z" fill="black"/>
</svg>
