<svg width="666" height="380" viewBox="0 0 666 380" fill="none" xmlns="http://www.w3.org/2000/svg">
<path d="M666 18V292.972H623V380L517.676 292.972H19V18H666Z" fill="#A9D43C"/>
<path d="M648 1V276.991H605V364.5L499 277H1V1H648Z" fill="white" stroke="black"/>
</svg>
