<svg width="31" height="31" viewBox="0 0 31 31" fill="none" xmlns="http://www.w3.org/2000/svg">
<path d="M24.8436 2.24811C24.0226 2.24811 23.2088 2.1918 22.475 1.9375L15.5 13.2398L8.525 1.9375C7.79117 2.1918 7.02102 2.24811 6.2 2.24811C5.39352 2.24811 4.5943 2.18453 3.875 1.9375L13.175 16.9622V29.0625C13.9016 28.8155 14.6887 28.7519 15.5 28.7519C16.3113 28.7519 17.0984 28.8155 17.825 29.0625V16.9834L27.125 1.9375C26.4057 2.17969 25.6501 2.24811 24.8436 2.24811Z" fill="black"/>
</svg>
