<svg width="99" height="8" viewBox="0 0 99 8" fill="none" xmlns="http://www.w3.org/2000/svg">
<path d="M98.3536 4.35355C98.5488 4.15829 98.5488 3.84171 98.3536 3.64645L95.1716 0.464466C94.9763 0.269204 94.6597 0.269204 94.4645 0.464466C94.2692 0.659728 94.2692 0.976311 94.4645 1.17157L97.2929 4L94.4645 6.82843C94.2692 7.02369 94.2692 7.34027 94.4645 7.53553C94.6597 7.7308 94.9763 7.7308 95.1716 7.53553L98.3536 4.35355ZM0 4.5H98V3.5H0V4.5Z" fill="#303030"/>
</svg>
